[
{
    "model": "accounts.profile",
    "pk": 1,
    "fields": {
        "user": 1,
        "image": "default.jpg"
    }
},
{
    "model": "accounts.profile",
    "pk": 2,
    "fields": {
        "user": 2,
        "image": "default.jpg"
    }
},
{
    "model": "accounts.profile",
    "pk": 3,
    "fields": {
        "user": 3,
        "image": "default.jpg"
    }
}
]
